403896 743607
823637 105620
790818 536711
38635 552406
500202 110382
305920 478933
161707 936739
847429 730871
834772 941908
843288 900510
124061 546114
738227 584502
751229 274134
641035 390043
178413 400119
419372 977841
851281 157631
846556 71571
381260 664591
917432 36190
797451 957075
842438 514598
993273 573281
83644 647312
447481 500714
738836 411825
54392 187096
646409 150665
845792 958410
600037 311630
770485 947952
272787 890388
628595 530432
635236 137103
781436 457430
248247 18323
934313 715413
295604 32672
718528 240162
104935 499564
963348 703533
836470 221608
942086 316737
905138 425043
728928 423231
731260 664819
725993 62694
614206 603247
946391 753557
710312 492123
898452 918449
120089 879151
348026 171256
188904 297911
558367 672055
236616 196846
981480 521833
896106 176333
215633 6181
581940 664792
567261 344110
336326 186993
850272 855163
426593 708182
244832 211962
607600 806646
633072 140538
492502 500727
146710 78263
9681 308912
440544 380488
177367 754491
612374 135729
970949 973557
943859 598571
97334 153342
940730 634058
703408 787719
716556 472469
44935 763941
846186 956064
527842 791235
53814 350332
79701 523749
661673 849038
146079 836488
190024 480555
827877 161372
984089 420676
671842 174470
564812 69293
241106 753361
233182 255956
593715 817653
520550 247314
110924 31377
288068 296552
807833 143462
476046 621532
114791 149145
417343 588489
970642 793283
958541 815702
819478 298720
789328 762991
985474 401398
15885 223433
186326 793931
143996 760163
216045 359738
634923 832092
262020 550765
820004 74600
579607 611830
320150 521181
124280 123496
913858 572164
917641 547798
818011 681078
771292 245086
327400 780390
575877 261176
158020 205287
585777 786225
51737 279068
95863 352243
411710 873693
308283 904724
217592 358428
985098 681419
606234 121520
676926 550910
103158 762690
942055 118286
684917 105067
434813 107923
493785 506201
37268 250898
482881 42797
385406 321259
682437 207331
569424 241421
226436 634838
20497 233769
581879 860368
556762 777618
442986 465240
617877 529059
470112 943803
170760 157764
684437 257360
189157 525761
942153 85579
607671 583741
409455 944373
54452 983012
935329 977503
393547 955478
494111 495103
171706 653281
230883 494458
328534 873256
805807 34604
957592 744669
424340 992016
553642 973396
78532 125347
979011 151871
452081 782478
842271 342280
580773 966890
374097 915300
819001 183139
368761 311769
209020 167869
744130 659360
692138 625727
426609 272547
4209 473811
322696 210919
180906 839021
740129 546353
444746 21132
237085 414123
866160 92682
30659 788896
760626 147811
328086 312037
860215 763846
17394 352652
100132 398149
803002 301886
829658 323982
830406 505532
783414 713702
594458 167350
247820 766176
873471 718852
92599 590669
184032 531500
73499 471709
43620 330613
65731 11692
764237 549541
621894 42628
219989 966298
707167 217272
210076 675160
233878 416364
25851 664702
573449 266477
274106 635893
600818 383216
498198 650440
614237 483025
976463 715040
928597 94216
976984 445195
429717 648882
394045 886858
918049 631485
402672 714764
14056 865925
465256 11511
91234 297934
342532 817799
617846 41063
808870 963265
989513 243483
853856 259465
770102 285489
532367 964762
686405 548819
547241 403208
254720 139240
776525 730480
30127 490096
740754 741082
239820 543274
786857 708205
287009 265810
909111 185466
719159 198619
319936 16594
532792 496293
199642 666773
582549 662784
676527 686635
27749 591159
291166 964706
758275 702799
313187 511684
438062 625706
171312 298634
507152 520813
155223 865869
864461 945970
850814 407736
293194 761909
753367 586433
129710 229845
234127 765976
58279 598106
187809 60991
241305 538150
466175 108444
470478 652757
258519 732250
126284 899021
1487 700000
757782 530995
242702 794430
301902 424379
183394 29335
370451 743735
466846 621233
150935 697441
