984615 598470
295780 123589
917196 503329
661894 983801
632496 234633
478346 594055
5435 76
633703 907281
552895 943467
798954 930107
2061 259797
781753 919504
934818 54520
551938 793311
19701 133174
746999 530640
494114 137296
104202 678051
222225 853489
830049 54408
488856 249728
694481 170961
892067 252934
174345 235515
186055 252128
49563 414733
649953 423441
47213 795215
664247 611318
76677 525113
360319 538711
464569 459569
833180 245075
107283 883969
445610 877540
298468 77501
4509 802920
81410 591014
574182 620213
818222 520394
714659 803710
451686 172236
305202 148593
242188 264842
41978 291567
648348 418684
861742 267296
152879 491578
904422 122864
314198 77683
516082 276577
98517 755174
277051 851932
647918 826729
592376 754239
985388 664640
756266 569915
780426 377588
289376 87796
321431 265434
59432 912656
144536 620324
279176 259400
850601 172433
267270 498904
942683 534843
31871 714030
755186 238913
157977 148390
205519 511275
917970 46021
253005 456754
197711 654672
1340 175074
41865 690083
699387 898231
710201 199233
593959 428109
226183 507682
163120 909847
685801 963744
513299 628826
957507 940756
345972 35805
65393 200089
117900 91371
397332 578648
216629 340979
569115 139937
713801 694883
652813 116020
184352 285246
660265 330678
506927 495038
61345 767728
888437 307081
297948 186671
450934 837929
549072 424854
62836 585242
131930 524176
732467 615097
651369 760996
978471 300817
877688 929288
508259 585954
80224 891031
189342 103031
954056 382590
107401 951132
290589 681222
421182 458810
788815 732027
795019 725138
140098 14354
812871 231612
994108 85761
29447 454972
770041 925928
803718 700299
470378 801956
693554 493027
152557 910496
912393 275976
315176 166419
830342 882983
394329 950593
936132 331364
57694 970566
124596 989515
562655 181909
656491 847588
346987 971222
329710 99757
511680 24639
573290 523788
891394 838808
793400 307125
736690 756689
274933 217874
706842 649807
233788 500132
480401 482898
656713 932181
75554 275416
571997 947997
468751 73765
848639 68396
750364 849849
866255 870957
557821 610438
740679 767336
987345 222295
180218 227702
732106 272171
80432 509356
843194 159200
809805 95493
892245 398545
957194 939020
292772 161204
553369 582170
923160 81551
767876 214190
814123 363566
982504 18645
796529 336717
635312 139264
954390 767525
272006 168847
268116 112181
145587 571770
658429 222051
514669 80548
257251 690111
368178 215357
895588 378044
340826 44819
489409 479156
835102 685720
285518 997762
290462 900349
257226 352691
43605 614959
606175 934706
213751 877889
38185 301178
939504 236752
948200 200904
452841 576335
346725 56182
913587 250405
595507 491245
750598 256537
819964 701900
906242 97533
12884 224463
487838 596443
639106 661085
821365 234961
912139 263796
360450 40607
