293357 748547 509
173568 679275 509
379502 692263 509
355672 66868 443
587910 94490 470
756174 62528 509
836106 570436 509
185980 319241 443
371196 147921 443
870467 854901 388
715787 527883 509
464560 244885 449
113087 509000 449
183251 103442 383
843893 209157 525
877706 154257 525
160284 355805 443
568163 604944 434
621890 962249 525
613508 124683 470
457772 639850 509
779230 156810 509
694972 661069 442
936336 999162 507
204762 628535 509
772903 276802 509
580316 342006 470
722313 869508 525
826328 994285 525
143762 489844 449
167892 32332 383
408247 512820 470
76046 91178 351
972160 950521 458
552855 847775 525
582975 495273 470
688590 156094 509
896657 917072 476
816580 294841 509
957074 286211 525
408498 234546 441
494650 363223 449
321216 286904 389
705148 691564 504
289852 656757 509
234377 748476 509
450584 28358 449
831406 686666 504
404882 863801 525
944440 610054 525
263092 53261 443
408277 448811 449
814115 810657 406
844588 591398 525
549617 654545 509
932392 136439 525
814565 284956 509
305529 446028 449
960635 133074 525
60775 468709 449
6723 83574 351
274877 654772 509
883380 282853 525
573748 689840 509
974940 921123 507
806352 915523 525
46303 673362 509
662148 483271 509
412397 309067 449
725165 700278 504
726693 805884 468
725442 560914 509
308097 104141 443
243292 384599 441
160626 443851 449
408132 683916 509
744956 505321 509
925455 590706 525
235498 336346 407
207923 557907 470
360709 921953 525
12042 683056 509
830724 7019 509
80951 741399 509
477235 655102 509
221921 622679 470
993682 487247 525
518641 486623 470
48987 937461 525
787281 41088 509
631068 242112 509
314805 849448 525
128974 105167 354
199898 921100 525
716448 755644 424
294500 76861 443
736213 244497 509
523882 76145 470
207771 696271 509
147574 589721 470
472655 453958 444
905415 322262 525
432816 248486 449
192260 690040 509
334766 435948 449
296369 667597 509
857145 999970 507
9885 785411 509
466138 846893 525
393717 762786 509
589421 779130 509
30530 724467 509
132177 893596 525
700109 838438 525
561937 192747 470
292248 202899 443
24959 936919 525
161090 47355 383
951616 626766 525
833438 481467 509
525499 419626 470
210720 989269 525
749019 445816 509
238730 799781 509
639623 721453 504
110428 966409 525
14418 323079 443
95814 624049 470
729664 16190 509
254693 122579 443
19581 109608 354
778251 729358 468
490970 640541 509
232677 336792 407
889807 707004 525
575360 115236 470
161142 67972 383
144603 994588 525
304139 972540 525
423230 357239 449
340691 554099 470
813208 651090 504
615695 397824 470
201172 138981 383
224242 806928 509
862013 254417 525
392734 655264 509
807016 39543 509
312391 612482 470
133085 842077 525
559607 909503 525
368951 188084 443
574649 819395 509
36709 326118 443
222772 510134 449
20121 376336 443
496933 368361 449
995893 269442 525
953249 845522 507
861807 58047 525
422896 190629 449
595851 672959 509
346412 755948 509
459085 201163 449
61346 169376 383
575969 637279 509
887096 310800 525
77136 214148 383
875947 789107 525
230760 796318 509
738149 952927 525
454307 931526 525
56788 694915 509
310566 686567 509
243688 192816 443
38102 493100 449
906806 264593 525
448612 164196 449
832499 332980 509
633094 810670 504
324253 411019 449
37823 34090 324
622829 246246 470
840415 265454 525
566894 840697 525
871244 351489 525
113740 657763 509
456087 355290 449
201415 774553 509
24247 257227 443
992899 681899 525
633590 298778 509
21138 415093 449
406941 758690 509
3659 261524 443
455341 899055 525
260640 565009 470
899999 788391 525
322271 411455 449
120326 598040 470
628716 431819 509
823355 838517 525
316136 572112 470
667603 819024 504
63241 575906 470
960752 287847 525
641972 670343 442
253284 697359 509
210206 322418 443
232135 998725 525
137043 978589 525
892149 112305 525
208880 572021 470
150009 575503 470
132632 661768 509
629236 560354 509
892153 139588 525
668021 407256 509
580581 87971 470
26789 430801 449
242103 493837 449
194518 383237 443
54203 933978 525
61132 178061 383
