8720 2465
2752 6480
1102 2642
7235 721
8416 1549
489 5419
5286 7270
7893 876
4486 4296
1127 4781
8043 901
7434 5945
3546 110
9530 273
8636 3961
4141 9447
4003 9505
5262 8038
9196 6890
1421 8565
8900 8289
3126 3982
2499 7476
1506 8755
1812 520
3002 9393
8542 9838
4502 3669
3667 5607
7712 1521
2910 8591
6139 5084
9698 2344
3050 6580
6992 2140
9830 5641
5323 8667
5946 87
3212 9585
8735 494
6584 935
2599 3261
8630 4213
6022 4500
7612 9940
6033 2692
5167 4796
9556 8725
1599 2684
1414 3745
9383 155
5687 1151
9538 8528
5744 6493
519 6471
3779 7765
2321 714
6310 4777
7712 384
614 3492
8360 9298
1928 2647
9466 2227
9280 2586
7896 7019
8026 4344
2975 2313
2964 1123
9126 4416
621 7895
9253 7647
2625 7958
2956 6804
1838 102
9049 2059
1711 8027
8254 5798
6526 601
5296 7840
1198 7168
7344 1541
5634 3268
738 3312
5273 1158
5486 284
6060 5951
402 9097
5934 1096
3663 8641
929 7890
2143 5899
3931 2637
6965 5649
6750 7078
8649 6609
6016 6096
9799 4853
2887 4171
2797 1537
2362 8125
2684 9581
8406 9167
1094 1605
7621 8075
4094 1989
4663 3682
7343 9718
4275 4857
6299 558
7590 6256
9615 1136
5783 5299
5461 9731
5508 4440
9599 7352
7455 9885
5749 7082
4500 598
6547 8424
8146 739
5409 5130
7145 506
884 362
4724 3219
2792 1325
8334 6689
421 5784
9750 8012
5596 8569
6921 153
2467 496
1479 543
3862 3506
2904 9803
4651 4107
6627 5740
7542 512
9450 5830
3140 9191
3758 6414
2432 1857
422 6716
518345 520432
340864 458187
267193 587464
375824 715292
323785 287600
396077 437152
225894 359972
94205 922043
22430 202751
92165 204598
458410 633788
734931 289669
603615 686162
977668 285789
318127 301785
442391 757716
66547 506051
575606 723249
269252 103164
28346 96541
9746 71606
26918 94765
23872 32136
28773 14522
21446 68078
64953 76319
45469 374682
203944 892702
839994 763463
430383 923314
777087 641102
250417 425318
614412 190492
713102 171958
412120 408683
519395 698031
783223 969498
170819 304411
809888 161267
411033 731681
174523 379340
667099 22969
759920 916988
759735 877104
843463 508280
265682 763497
878375 140570
149626 200213
935290 768264
1 10
100 200
201 210
900 1000
10 1
1 1
5 5
267 5791
490522 221273
505288 636057
259488 846531
548173 954334
418117 167642
424491 637347
