569850 572196 377
433213 19560 449
2365 617148 470
83760 232571 443
439052 22269 449
927448 207983 525
589244 332933 470
139747 720066 509
227066 285577 443
47039 207175 383
484587 469959 413
835750 493992 509
856406 306152 525
146566 322873 443
799988 131114 509
563485 129047 470
707806 710689 380
116173 777866 509
38032 654056 509
259142 122532 443
242798 110074 443
212559 355197 443
888774 433725 525
243945 711159 509
632422 614755 509
794061 502166 509
595483 937182 525
450768 686562 509
8561 738339 509
178102 365998 443
104518 874980 525
693795 956134 525
933110 451392 525
633185 8859 509
132615 552322 470
981469 347429 525
796337 558947 509
538235 176697 470
796816 178477 509
362334 500744 449
267283 176416 443
757798 106733 509
157188 146970 383
700844 150968 509
79571 850057 525
220434 916795 525
502782 213986 449
576704 131956 470
662064 52424 509
348238 799136 509
846411 671420 525
846289 578310 525
606629 370637 470
520208 464304 470
614355 186270 470
754668 369057 509
89467 229268 386
905657 893162 401
759364 869823 525
613663 866271 525
10141 717546 509
62432 161827 383
811546 230747 509
904338 875040 445
528861 630270 509
825703 491378 509
132821 91362 354
621044 143064 470
33753 265175 443
627350 76816 509
170652 981433 525
971039 361163 525
472036 616763 470
614681 488718 470
198775 81886 383
348216 714151 509
457370 856444 525
346255 517109 470
211703 103630 383
591253 473792 470
756857 154124 509
244944 152521 443
966760 953896 414
249412 282481 407
28080 31506 285
622390 710386 509
221655 856186 525
267303 676784 509
479940 949134 525
6693 780521 509
190660 221940 386
908758 567691 525
680422 379589 509
616988 307793 470
708688 9315 509
421282 908787 525
366212 866038 525
298808 811729 509
474300 646920 509
416334 683397 509
681102 232782 509
481661 555060 470
434364 261902 449
866139 275065 525
594855 144848 470
899289 319710 525
355433 997068 525
279976 148847 443
589065 872746 525
899290 825798 525
348958 63652 443
456245 658721 509
604415 425089 470
433935 797298 509
516909 233683 470
180811 965076 525
909005 892336 445
437497 622010 470
32070 790631 509
421032 304794 449
717233 750574 424
899262 203193 525
570999 28189 470
992042 447592 525
849208 113165 525
407178 682417 509
473956 308948 449
259473 2619 443
251448 211432 443
908271 41012 525
728239 772091 468
437595 437766 263
174235 197010 365
130402 326380 443
922417 636257 525
434454 406656 449
959814 836945 525
972935 976612 383
408458 364212 436
679212 495416 509
133932 325438 443
718346 176463 509
151215 388117 443
157068 521937 470
605773 335574 470
696517 205067 509
754356 813854 468
217921 698432 509
538699 15468 470
878895 941071 507
649112 124643 509
4846 256391 443
820169 599564 509
68576 633103 509
496821 353828 449
954799 666891 525
561853 913207 525
449087 983791 525
752786 698640 504
461212 192474 449
456139 296218 449
635014 751842 504
705113 748460 424
883875 759120 525
117999 95185 354
688788 364215 509
884063 53919 525
911589 685727 525
425631 468278 444
575163 511873 470
157894 162810 370
936178 152559 525
390366 874593 525
802659 846513 525
804259 879043 525
709641 402135 509
649867 734455 504
119274 698289 509
430423 842871 525
644590 648109 341
893658 347901 525
291619 419470 449
686803 267126 509
661956 462966 509
124268 612480 470
606698 3629 470
59118 606631 470
472496 328910 449
905040 376143 525
180422 738302 509
950778 712839 525
886194 204084 525
375277 254370 441
703835 357825 509
362800 228525 443
649365 871318 525
931094 854740 476
583931 899674 525
381345 455773 449
577973 902733 525
710428 778062 468
408765 99061 443
250247 762913 509
702334 731404 504
779287 206623 509
260339 317795 407
420690 222726 449
422316 33199 449
468377 470990 382
815108 919781 525
87489 183626 383
